('F:\\pyinstaller-pyinstaller-v3.2-235-g483c819\\pyinstaller-pyinstaller-483c819\\app\\dist\\app.exe',
 False,
 False,
 False,
 None,
 None,
 False,
 False,
 u'<?xml version="1.0" encoding="UTF-8" standalone="yes"?><assembly manifestVersion="1.0" xmlns="urn:schemas-microsoft-com:asm.v1"><assemblyIdentity name="app" processorArchitecture="x86" type="win32" version="1.0.0.0"/><dependency><dependentAssembly><assemblyIdentity name="Microsoft.VC90.CRT" processorArchitecture="x86" publicKeyToken="1fc8b3b9a1e18e3b" type="win32" version="9.0.21022.8"/><compatibility xmlns="urn:schemas-microsoft-com:compatibility.v1"/></dependentAssembly></dependency><dependency><dependentAssembly><assemblyIdentity language="*" name="Microsoft.Windows.Common-Controls" processorArchitecture="x86" publicKeyToken="6595b64144ccf1df" type="win32" version="6.0.0.0"/><compatibility xmlns="urn:schemas-microsoft-com:compatibility.v1"/></dependentAssembly></dependency><compatibility xmlns="urn:schemas-microsoft-com:compatibility.v1"><application><supportedOS Id="{1f676c76-80e1-4239-95bb-83d0f6d0da78}"/><supportedOS Id="{4a2f28e3-53b9-4441-ba9c-d69d4a4a6e38}"/><supportedOS Id="{e2011457-1546-43c5-a5fe-008deee3d3f0}"/><supportedOS Id="{35138b9a-5d96-4fbd-8e2d-a2440225f93a}"/><supportedOS Id="{8e0f7a12-bfb3-4fe8-b9a5-48fd50a15a9a}"/></application></compatibility></assembly>',
 True,
 'app.pkg',
 [('out00-PYZ.pyz',
   'F:\\pyinstaller-pyinstaller-v3.2-235-g483c819\\pyinstaller-pyinstaller-483c819\\app\\build\\app\\out00-PYZ.pyz',
   'PYZ'),
  ('struct', 'C:\\Python27\\lib\\struct.pyc', 'PYMODULE'),
  ('pyimod01_os_path',
   'F:\\pyinstaller-pyinstaller-v3.2-235-g483c819\\pyinstaller-pyinstaller-483c819\\PyInstaller\\loader\\pyimod01_os_path.pyc',
   'PYMODULE'),
  ('pyimod02_archive',
   'F:\\pyinstaller-pyinstaller-v3.2-235-g483c819\\pyinstaller-pyinstaller-483c819\\PyInstaller\\loader\\pyimod02_archive.pyc',
   'PYMODULE'),
  ('pyimod03_importers',
   'F:\\pyinstaller-pyinstaller-v3.2-235-g483c819\\pyinstaller-pyinstaller-483c819\\PyInstaller\\loader\\pyimod03_importers.pyc',
   'PYMODULE'),
  ('pyiboot01_bootstrap',
   'F:\\pyinstaller-pyinstaller-v3.2-235-g483c819\\pyinstaller-pyinstaller-483c819\\PyInstaller\\loader\\pyiboot01_bootstrap.py',
   'PYSOURCE'),
  ('app',
   'F:\\pyinstaller-pyinstaller-v3.2-235-g483c819\\pyinstaller-pyinstaller-483c819\\app.py',
   'PYSOURCE'),
  (u'Microsoft.VC90.CRT.manifest',
   u'C:\\Windows\\WinSxS\\Manifests\\x86_microsoft.vc90.crt_1fc8b3b9a1e18e3b_9.0.30729.6161_none_50934f2ebcb7eb57.manifest',
   'BINARY'),
  (u'msvcr90.dll',
   u'C:\\Windows\\WinSxS\\x86_microsoft.vc90.crt_1fc8b3b9a1e18e3b_9.0.30729.6161_none_50934f2ebcb7eb57\\msvcr90.dll',
   'BINARY'),
  (u'msvcp90.dll',
   u'C:\\Windows\\WinSxS\\x86_microsoft.vc90.crt_1fc8b3b9a1e18e3b_9.0.30729.6161_none_50934f2ebcb7eb57\\msvcp90.dll',
   'BINARY'),
  (u'msvcm90.dll',
   u'C:\\Windows\\WinSxS\\x86_microsoft.vc90.crt_1fc8b3b9a1e18e3b_9.0.30729.6161_none_50934f2ebcb7eb57\\msvcm90.dll',
   'BINARY'),
  ('python27.dll', 'C:\\Windows\\system32\\python27.dll', 'BINARY'),
  ('unicodedata', 'C:\\Python27\\DLLs\\unicodedata.pyd', 'EXTENSION'),
  ('_hashlib', 'C:\\Python27\\DLLs\\_hashlib.pyd', 'EXTENSION'),
  ('select', 'C:\\Python27\\DLLs\\select.pyd', 'EXTENSION'),
  ('bz2', 'C:\\Python27\\DLLs\\bz2.pyd', 'EXTENSION'),
  ('wx._misc_',
   'C:\\Python27\\lib\\site-packages\\wx-3.0-msw\\wx\\_misc_.pyd',
   'EXTENSION'),
  ('wx._controls_',
   'C:\\Python27\\lib\\site-packages\\wx-3.0-msw\\wx\\_controls_.pyd',
   'EXTENSION'),
  ('wx._windows_',
   'C:\\Python27\\lib\\site-packages\\wx-3.0-msw\\wx\\_windows_.pyd',
   'EXTENSION'),
  ('wx._gdi_',
   'C:\\Python27\\lib\\site-packages\\wx-3.0-msw\\wx\\_gdi_.pyd',
   'EXTENSION'),
  ('wx._core_',
   'C:\\Python27\\lib\\site-packages\\wx-3.0-msw\\wx\\_core_.pyd',
   'EXTENSION'),
  ('wxmsw30u_core_vc90.dll',
   'C:\\Python27\\lib\\site-packages\\wx-3.0-msw\\wx\\wxmsw30u_core_vc90.dll',
   'BINARY'),
  ('wxmsw30u_adv_vc90.dll',
   'C:\\Python27\\lib\\site-packages\\wx-3.0-msw\\wx\\wxmsw30u_adv_vc90.dll',
   'BINARY'),
  ('wxbase30u_vc90.dll',
   'C:\\Python27\\lib\\site-packages\\wx-3.0-msw\\wx\\wxbase30u_vc90.dll',
   'BINARY'),
  ('wxmsw30u_html_vc90.dll',
   'C:\\Python27\\lib\\site-packages\\wx-3.0-msw\\wx\\wxmsw30u_html_vc90.dll',
   'BINARY'),
  ('wxbase30u_net_vc90.dll',
   'C:\\Python27\\lib\\site-packages\\wx-3.0-msw\\wx\\wxbase30u_net_vc90.dll',
   'BINARY'),
  ('app.exe.manifest',
   'F:\\pyinstaller-pyinstaller-v3.2-235-g483c819\\pyinstaller-pyinstaller-483c819\\app\\build\\app\\app.exe.manifest',
   'BINARY'),
  ('pyi-windows-manifest-filename app.exe.manifest', '', 'OPTION')],
 [],
 False,
 False,
 1480583541L,
 [('runw.exe',
   'F:\\pyinstaller-pyinstaller-v3.2-235-g483c819\\pyinstaller-pyinstaller-483c819\\PyInstaller\\bootloader\\Windows-32bit\\runw.exe',
   'EXECUTABLE')])
