('F:\\pyinstaller-pyinstaller-v3.2-235-g483c819\\pyinstaller-pyinstaller-483c819\\app\\build\\app\\out00-PKG.pkg',
 {'BINARY': 1,
  'DATA': 1,
  'EXECUTABLE': 1,
  'EXTENSION': 1,
  'PYMODULE': 1,
  'PYSOURCE': 1,
  'PYZ': 0},
 [('out00-PYZ.pyz',
   'F:\\pyinstaller-pyinstaller-v3.2-235-g483c819\\pyinstaller-pyinstaller-483c819\\app\\build\\app\\out00-PYZ.pyz',
   'PYZ'),
  ('struct', 'C:\\Python27\\lib\\struct.pyc', 'PYMODULE'),
  ('pyimod01_os_path',
   'F:\\pyinstaller-pyinstaller-v3.2-235-g483c819\\pyinstaller-pyinstaller-483c819\\PyInstaller\\loader\\pyimod01_os_path.pyc',
   'PYMODULE'),
  ('pyimod02_archive',
   'F:\\pyinstaller-pyinstaller-v3.2-235-g483c819\\pyinstaller-pyinstaller-483c819\\PyInstaller\\loader\\pyimod02_archive.pyc',
   'PYMODULE'),
  ('pyimod03_importers',
   'F:\\pyinstaller-pyinstaller-v3.2-235-g483c819\\pyinstaller-pyinstaller-483c819\\PyInstaller\\loader\\pyimod03_importers.pyc',
   'PYMODULE'),
  ('pyiboot01_bootstrap',
   'F:\\pyinstaller-pyinstaller-v3.2-235-g483c819\\pyinstaller-pyinstaller-483c819\\PyInstaller\\loader\\pyiboot01_bootstrap.py',
   'PYSOURCE'),
  ('app',
   'F:\\pyinstaller-pyinstaller-v3.2-235-g483c819\\pyinstaller-pyinstaller-483c819\\app.py',
   'PYSOURCE'),
  (u'Microsoft.VC90.CRT.manifest',
   u'C:\\Windows\\WinSxS\\Manifests\\x86_microsoft.vc90.crt_1fc8b3b9a1e18e3b_9.0.30729.6161_none_50934f2ebcb7eb57.manifest',
   'BINARY'),
  (u'msvcr90.dll',
   u'C:\\Windows\\WinSxS\\x86_microsoft.vc90.crt_1fc8b3b9a1e18e3b_9.0.30729.6161_none_50934f2ebcb7eb57\\msvcr90.dll',
   'BINARY'),
  (u'msvcp90.dll',
   u'C:\\Windows\\WinSxS\\x86_microsoft.vc90.crt_1fc8b3b9a1e18e3b_9.0.30729.6161_none_50934f2ebcb7eb57\\msvcp90.dll',
   'BINARY'),
  (u'msvcm90.dll',
   u'C:\\Windows\\WinSxS\\x86_microsoft.vc90.crt_1fc8b3b9a1e18e3b_9.0.30729.6161_none_50934f2ebcb7eb57\\msvcm90.dll',
   'BINARY'),
  ('python27.dll', 'C:\\Windows\\system32\\python27.dll', 'BINARY'),
  ('unicodedata', 'C:\\Python27\\DLLs\\unicodedata.pyd', 'EXTENSION'),
  ('_hashlib', 'C:\\Python27\\DLLs\\_hashlib.pyd', 'EXTENSION'),
  ('select', 'C:\\Python27\\DLLs\\select.pyd', 'EXTENSION'),
  ('bz2', 'C:\\Python27\\DLLs\\bz2.pyd', 'EXTENSION'),
  ('wx._misc_',
   'C:\\Python27\\lib\\site-packages\\wx-3.0-msw\\wx\\_misc_.pyd',
   'EXTENSION'),
  ('wx._controls_',
   'C:\\Python27\\lib\\site-packages\\wx-3.0-msw\\wx\\_controls_.pyd',
   'EXTENSION'),
  ('wx._windows_',
   'C:\\Python27\\lib\\site-packages\\wx-3.0-msw\\wx\\_windows_.pyd',
   'EXTENSION'),
  ('wx._gdi_',
   'C:\\Python27\\lib\\site-packages\\wx-3.0-msw\\wx\\_gdi_.pyd',
   'EXTENSION'),
  ('wx._core_',
   'C:\\Python27\\lib\\site-packages\\wx-3.0-msw\\wx\\_core_.pyd',
   'EXTENSION'),
  ('wxmsw30u_core_vc90.dll',
   'C:\\Python27\\lib\\site-packages\\wx-3.0-msw\\wx\\wxmsw30u_core_vc90.dll',
   'BINARY'),
  ('wxmsw30u_adv_vc90.dll',
   'C:\\Python27\\lib\\site-packages\\wx-3.0-msw\\wx\\wxmsw30u_adv_vc90.dll',
   'BINARY'),
  ('wxbase30u_vc90.dll',
   'C:\\Python27\\lib\\site-packages\\wx-3.0-msw\\wx\\wxbase30u_vc90.dll',
   'BINARY'),
  ('wxmsw30u_html_vc90.dll',
   'C:\\Python27\\lib\\site-packages\\wx-3.0-msw\\wx\\wxmsw30u_html_vc90.dll',
   'BINARY'),
  ('wxbase30u_net_vc90.dll',
   'C:\\Python27\\lib\\site-packages\\wx-3.0-msw\\wx\\wxbase30u_net_vc90.dll',
   'BINARY'),
  ('app.exe.manifest',
   'F:\\pyinstaller-pyinstaller-v3.2-235-g483c819\\pyinstaller-pyinstaller-483c819\\app\\build\\app\\app.exe.manifest',
   'BINARY'),
  ('pyi-windows-manifest-filename app.exe.manifest', '', 'OPTION')],
 False,
 False,
 False)
